T:\java\Lab2.1\src\main\java\domain\SiteApplication.java
T:\java\Lab2.1\src\main\java\web\AddingPremiumServlet.java
T:\java\Lab2.1\src\main\java\web\PremiumPageServlet.java
T:\java\Lab2.1\src\main\java\web\LogingServlet.java
T:\java\Lab2.1\src\main\java\web\filters\PremiumFilter.java
T:\java\Lab2.1\src\main\java\web\LoginServlet.java
T:\java\Lab2.1\src\main\java\web\RegistringServlet.java
T:\java\Lab2.1\src\main\java\web\RegistrationServlet.java
T:\java\Lab2.1\src\main\java\web\filters\AddPremiumFilter.java
T:\java\Lab2.1\src\main\java\repositories\DummySiteApplicationRepository.java
T:\java\Lab2.1\src\main\java\web\AddPremiumServlet.java
T:\java\Lab2.1\src\main\java\repositories\SiteApplicationRepository.java
T:\java\Lab2.1\src\main\java\web\ProfilePageServlet.java
T:\java\Lab2.1\src\main\java\web\filters\NormalUserFilter.java
T:\java\Lab2.1\src\main\java\web\filters\UserNotKnownFilter.java
